<?xml version="1.0" standalone="no"?>
<!DOCTYPE svg PUBLIC "-//W3C//DTD SVG 20010904//EN"
 "http://www.w3.org/TR/2001/REC-SVG-20010904/DTD/svg10.dtd">
<svg version="1.0" xmlns="http://www.w3.org/2000/svg"
 width="1112.000000pt" height="1112.000000pt" viewBox="0 0 1112.000000 1112.000000"
 preserveAspectRatio="xMidYMid meet">
<metadata>
Created by potrace 1.14, written by Peter Selinger 2001-2017
</metadata>
<g transform="translate(0.000000,1112.000000) scale(0.100000,-0.100000)"
fill="#000000" stroke="none">
<path d="M5576 11112 c-4 -4 -11 -7 -15 -7 -17 0 -101 -60 -101 -72 0 -7 -4
-13 -9 -13 -6 0 -50 -82 -99 -182 -137 -280 -157 -323 -153 -327 1 -2 -1 -7
-6 -10 -5 -3 -19 -26 -30 -51 -12 -25 -54 -112 -94 -195 -41 -82 -74 -152 -74
-155 -1 -3 -33 -70 -72 -150 -133 -274 -240 -495 -254 -527 -8 -18 -17 -33
-21 -33 -5 0 -8 -6 -8 -14 0 -8 -25 -65 -56 -127 -66 -132 -187 -382 -189
-389 -9 -28 -50 -107 -59 -112 -6 -4 -8 -8 -4 -8 4 0 -6 -25 -23 -56 -16 -31
-29 -62 -29 -70 0 -8 -4 -14 -10 -14 -5 0 -10 -5 -10 -10 0 -6 -43 -100 -96
-208 -53 -108 -100 -207 -105 -219 -7 -19 -16 -23 -51 -23 -24 -1 -304 -2
-623 -3 -578 -2 -580 -2 -620 -24 -67 -38 -107 -84 -123 -143 -4 -15 -10 -236
-15 -530 l-2 -145 -50 -2 c-27 0 -62 -1 -76 -2 l-26 -1 1 -197 1 -198 373 -2
372 -2 0 200 0 199 -27 1 c-16 0 -53 0 -83 0 -30 -1 -60 2 -65 6 -7 5 -10 87
-10 221 0 205 0 213 20 217 11 2 229 3 485 2 l465 -2 2 -230 c9 -887 8 -1185
-2 -1188 -5 -2 -22 0 -37 4 -16 4 -28 4 -28 0 0 -5 -17 -5 -37 -2 -21 4 -55 4
-75 1 -20 -4 -43 -3 -50 1 -6 4 -19 4 -28 -1 -9 -5 -22 -5 -30 0 -8 5 -21 5
-30 0 -9 -5 -22 -5 -30 0 -8 5 -21 5 -30 0 -9 -5 -22 -5 -29 0 -8 4 -27 4 -42
0 -16 -5 -29 -5 -29 0 0 5 -13 5 -30 0 -17 -5 -30 -5 -30 0 0 5 -13 5 -30 0
-17 -5 -30 -5 -30 0 0 5 -13 5 -30 0 -17 -5 -30 -5 -30 0 0 5 -13 5 -30 0 -16
-5 -30 -6 -30 -2 0 7 -106 5 -126 -2 -6 -2 -17 0 -24 4 -8 5 -21 5 -30 0 -9
-5 -22 -5 -30 0 -8 5 -21 5 -30 0 -9 -5 -22 -5 -30 0 -8 5 -21 5 -30 0 -9 -5
-22 -5 -29 0 -8 4 -27 4 -42 0 -16 -5 -29 -5 -29 0 0 5 -13 5 -30 0 -17 -5
-30 -5 -30 0 0 5 -13 5 -30 0 -17 -5 -30 -5 -30 0 0 5 -13 5 -30 0 -17 -5 -30
-5 -30 0 0 5 -13 5 -30 0 -16 -5 -30 -6 -30 -2 0 7 -106 5 -126 -2 -6 -2 -17
0 -24 4 -8 5 -21 5 -30 0 -9 -5 -22 -5 -30 0 -8 5 -21 5 -30 0 -9 -5 -22 -5
-30 0 -8 5 -21 5 -30 0 -9 -5 -22 -5 -29 0 -8 4 -27 4 -42 0 -16 -5 -29 -5
-29 0 0 5 -13 5 -30 0 -16 -5 -30 -6 -30 -2 0 9 -147 1 -157 -8 -2 -2 -6 -3
-10 -4 -5 0 -25 -11 -45 -23 -53 -31 -105 -108 -113 -166 -4 -26 -7 -337 -7
-691 l0 -645 -72 1 c-39 0 -78 -1 -86 -1 -13 -1 -15 -30 -15 -196 0 -124 3
-196 10 -197 5 -1 44 -2 85 -3 l75 -1 3 -50 3 -50 -78 1 c-43 1 -82 0 -88 -2
-6 -2 -10 -78 -10 -201 l0 -197 370 0 370 0 0 199 0 200 -80 0 -80 1 -5 30
c-13 65 -8 68 111 67 l56 0 1 199 1 199 -32 1 c-18 0 -52 1 -77 1 -24 0 -49 2
-55 4 -9 4 -12 660 -3 669 4 4 70 -26 78 -35 3 -3 19 -12 35 -20 17 -8 46 -24
65 -36 19 -11 76 -42 125 -69 50 -26 95 -51 100 -55 6 -4 35 -21 65 -37 30
-16 96 -53 145 -80 50 -28 111 -62 138 -77 84 -46 131 -73 172 -96 22 -12 58
-32 80 -43 22 -12 48 -28 58 -36 9 -8 17 -11 17 -7 0 4 12 -1 28 -12 15 -10
59 -36 97 -57 39 -21 99 -54 135 -74 36 -21 72 -40 80 -44 8 -4 29 -16 46 -26
17 -10 61 -35 98 -55 56 -30 82 -46 124 -72 5 -3 -24 -65 -57 -119 -16 -27
-39 -67 -50 -88 -12 -20 -137 -241 -280 -490 -142 -248 -269 -470 -281 -492
-25 -45 -109 -190 -127 -220 -7 -11 -17 -32 -24 -47 -6 -16 -15 -28 -20 -28
-5 0 -9 -9 -9 -19 0 -11 -4 -21 -8 -23 -5 -1 -31 -43 -58 -91 -27 -48 -56
-100 -64 -115 -34 -60 -428 -749 -548 -957 -124 -216 -199 -347 -214 -375 -10
-19 -23 -42 -28 -50 -5 -8 -35 -60 -66 -115 -32 -55 -80 -141 -109 -191 -28
-49 -55 -97 -59 -105 -4 -8 -12 -23 -19 -34 -7 -11 -36 -63 -66 -115 -29 -52
-58 -97 -62 -98 -5 -2 -7 -7 -4 -12 3 -4 -2 -13 -10 -20 -8 -7 -15 -16 -15
-21 0 -5 -32 -64 -71 -131 -113 -194 -122 -215 -122 -283 0 -166 159 -281 318
-228 28 9 91 35 140 58 50 23 115 54 145 68 30 13 87 40 125 58 39 18 72 33
75 34 3 1 32 14 65 30 33 15 63 27 68 27 4 -1 7 2 7 8 0 6 3 9 8 8 4 -1 34 11
67 26 33 16 87 41 120 56 33 15 94 43 135 63 71 33 118 54 255 117 33 15 94
43 135 63 41 19 98 45 125 57 28 12 102 47 165 77 108 52 158 75 170 78 3 0
25 11 50 24 25 13 45 23 45 22 0 -2 54 23 120 54 66 32 126 58 133 58 6 0 12
4 12 9 0 4 9 8 20 8 11 0 20 3 20 8 0 5 79 44 100 48 3 0 46 20 95 43 155 74
215 101 225 101 6 0 10 4 10 9 0 5 10 11 23 15 13 3 77 31 143 61 125 59 184
86 274 128 30 14 104 48 164 76 60 28 115 51 122 51 8 0 14 5 14 10 0 6 5 10
10 10 6 0 41 15 78 33 37 18 70 34 74 35 5 1 37 16 73 32 36 17 68 30 71 30 3
0 286 -139 629 -310 343 -170 627 -310 632 -310 5 0 14 -5 20 -11 5 -5 50 -29
99 -53 49 -23 109 -53 134 -66 25 -13 51 -25 58 -26 8 -1 23 -11 34 -21 11
-10 23 -17 27 -17 10 2 196 -89 199 -98 2 -4 8 -8 14 -8 15 0 380 -181 402
-199 10 -9 20 -15 22 -13 7 5 218 -100 226 -112 4 -6 8 -8 8 -5 0 4 201 -93
448 -216 246 -122 461 -225 477 -230 79 -21 168 -2 228 50 58 51 94 166 73
235 -11 36 -80 178 -394 820 -47 96 -86 177 -87 180 -1 3 -41 86 -89 185 -188
383 -322 657 -406 830 -48 99 -136 279 -196 400 -59 121 -108 222 -109 225 0
3 -36 77 -79 165 -43 88 -126 257 -183 375 -58 118 -131 268 -163 332 -32 64
-55 119 -52 122 3 3 0 6 -6 6 -7 0 -12 4 -12 9 0 14 -104 225 -112 229 -5 2
-8 9 -8 16 0 6 -15 41 -34 76 -33 65 -55 121 -41 108 4 -4 29 9 56 28 27 19
51 34 53 34 3 0 33 19 68 43 72 47 76 50 171 109 38 24 79 50 92 58 13 8 66
41 117 74 51 32 118 75 148 95 30 20 63 41 72 46 10 6 120 75 245 155 125 80
232 147 238 149 5 2 12 7 15 10 5 6 91 62 131 86 48 28 186 115 197 125 9 9
12 -26 13 -167 0 -98 1 -239 1 -314 1 -74 -1 -140 -4 -145 -3 -5 -42 -9 -85
-8 l-80 1 0 -199 c0 -134 4 -198 11 -199 6 -1 45 -2 86 -3 l74 -1 1 -55 0 -55
-90 0 -90 -1 0 -199 0 -200 370 0 370 0 0 200 0 200 -80 0 -80 0 0 56 -1 56
86 -1 85 -1 0 200 0 200 -85 0 -85 1 -2 199 c-1 110 -2 403 -3 650 0 282 -5
465 -11 490 -32 119 -137 189 -276 185 -7 0 -19 0 -25 0 -7 0 -37 0 -66 1 -29
1 -55 0 -58 -4 -3 -3 -18 -2 -33 3 -16 4 -34 4 -41 0 -6 -4 -27 -4 -46 0 -19
4 -36 4 -39 0 -3 -5 -18 -5 -34 0 -16 4 -32 6 -35 2 -8 -8 -102 -5 -116 3 -5
3 -10 2 -10 -4 0 -6 -11 -6 -30 -1 -17 5 -30 5 -30 0 0 -5 -13 -5 -30 0 -17 5
-30 5 -30 0 0 -5 -13 -5 -30 0 -17 5 -30 5 -30 0 0 -5 -13 -5 -30 0 -17 5 -30
5 -30 0 0 -5 -13 -5 -30 0 -17 5 -30 5 -30 0 0 -5 -13 -5 -30 0 -17 5 -30 5
-30 0 0 -5 -13 -5 -30 0 -17 5 -30 5 -30 0 0 -5 -13 -5 -30 0 -19 5 -30 5 -30
-1 0 -6 -4 -7 -10 -4 -13 8 -108 11 -115 3 -4 -3 -19 -3 -34 2 -16 4 -34 4
-41 0 -6 -4 -27 -4 -46 0 -19 4 -36 4 -39 0 -3 -5 -18 -5 -34 0 -16 4 -32 6
-35 2 -8 -8 -102 -5 -116 3 -5 3 -10 2 -10 -3 0 -6 -14 -7 -32 -3 -18 4 -48 4
-65 0 -18 -3 -33 -3 -33 2 0 4 -13 4 -30 -1 -16 -5 -30 -6 -30 -2 0 4 -16 7
-35 7 -19 0 -35 -3 -35 -6 0 -8 -54 2 -60 12 -3 4 -4 52 -3 106 1 54 4 269 8
478 9 546 14 798 14 813 1 10 68 12 314 13 423 0 530 -1 536 -6 5 -2 6 -417 2
-447 -1 -4 -25 -7 -53 -7 -29 1 -57 0 -63 -1 -5 -1 -19 -3 -30 -4 -19 -1 -20
-9 -22 -194 -3 -191 -2 -193 20 -201 12 -5 23 -5 25 0 2 4 13 5 25 1 20 -6 46
-7 72 -2 23 4 86 2 92 -3 3 -4 14 -2 24 3 10 6 20 6 23 2 3 -5 26 -6 50 -2 25
4 51 3 58 -1 6 -4 19 -4 29 1 9 5 19 7 22 3 6 -5 87 -7 102 -3 14 4 74 3 87
-2 8 -4 21 -2 28 2 8 5 21 5 29 0 9 -4 26 -4 38 1 22 8 22 11 22 203 -1 222 7
206 -97 195 -29 -3 -57 -2 -62 1 -14 8 -19 80 -8 103 5 9 5 17 1 17 -4 0 -8
114 -9 253 0 138 -3 269 -6 289 -8 49 -52 119 -95 148 -19 13 -56 29 -83 36
-53 14 -211 21 -227 11 -6 -4 -13 -4 -15 -1 -5 4 -521 7 -545 3 -4 -1 -81 -1
-170 0 l-162 1 -82 168 c-44 92 -117 239 -160 327 -43 88 -79 166 -79 172 0 6
-5 13 -11 15 -5 2 -11 10 -13 18 -1 8 -48 107 -103 220 -55 113 -156 318 -223
455 -190 389 -244 500 -245 505 -1 3 -40 82 -87 177 -47 95 -83 174 -80 177 3
4 0 6 -6 6 -7 0 -12 4 -12 9 0 20 -293 607 -320 641 -41 52 -103 82 -181 86
-36 2 -69 0 -73 -4z m338 -1144 c53 -108 96 -200 96 -205 0 -5 6 -15 13 -21 6
-7 12 -16 12 -20 1 -4 31 -68 68 -142 37 -75 67 -141 67 -147 0 -6 3 -13 8
-15 4 -1 23 -37 42 -78 19 -41 38 -76 43 -78 4 -2 7 -9 7 -16 0 -18 24 -66 33
-66 4 0 7 -5 7 -12 0 -6 22 -57 49 -112 27 -56 104 -213 171 -351 158 -323
270 -555 270 -559 0 -2 -517 -4 -1150 -4 -632 0 -1150 4 -1150 8 0 5 50 111
111 237 61 125 133 273 159 328 26 55 87 181 135 280 48 99 113 234 145 300
32 66 96 199 143 295 46 96 118 245 159 330 42 85 104 214 139 285 34 72 64
136 65 143 1 8 10 22 18 31 9 10 16 20 16 24 0 4 12 32 27 63 l27 57 87 -179
c47 -99 130 -268 183 -376z m766 -2237 c0 -3 -15 -22 -33 -42 -17 -21 -39 -45
-48 -55 -57 -69 -225 -264 -248 -289 -15 -16 -65 -75 -111 -130 -47 -55 -87
-102 -90 -105 -3 -3 -57 -66 -120 -140 -63 -74 -117 -137 -120 -140 -3 -3 -43
-50 -90 -105 -47 -55 -98 -114 -113 -131 -15 -18 -34 -39 -40 -48 -14 -20 -23
-13 -92 69 -22 27 -52 62 -67 79 -14 17 -72 85 -128 151 -56 66 -114 134 -129
150 -14 17 -79 93 -145 169 -65 77 -123 145 -130 152 -6 6 -25 29 -43 50 -17
22 -41 50 -53 64 -12 14 -39 45 -60 70 -21 25 -48 56 -60 70 -12 14 -39 45
-60 70 -21 25 -48 56 -59 69 -12 13 -21 25 -21 26 0 1 464 2 1030 2 567 0
1030 -3 1030 -6z m-2164 -491 c49 -58 97 -114 107 -125 10 -11 28 -33 40 -48
12 -15 33 -40 47 -55 14 -15 43 -49 65 -76 22 -27 51 -61 65 -76 14 -15 68
-78 120 -140 52 -62 106 -125 120 -140 14 -15 41 -47 62 -71 20 -24 44 -54 55
-65 10 -12 32 -38 48 -59 17 -20 35 -43 42 -50 10 -10 7 -14 -12 -18 -14 -2
-25 -1 -25 4 0 4 -13 4 -30 -1 -16 -5 -32 -5 -34 -1 -3 4 -30 4 -60 1 -31 -3
-62 -3 -68 1 -7 4 -19 4 -28 -1 -9 -5 -22 -5 -30 0 -8 5 -21 5 -30 0 -9 -5
-22 -5 -30 0 -8 5 -21 5 -30 0 -9 -5 -22 -5 -29 0 -8 4 -27 4 -42 0 -16 -5
-29 -5 -29 0 0 5 -13 5 -30 0 -17 -5 -30 -5 -30 0 0 5 -13 5 -30 0 -17 -5 -30
-5 -30 0 0 5 -13 5 -30 0 -17 -5 -30 -5 -30 0 0 5 -13 5 -30 0 -16 -5 -30 -6
-30 -2 0 4 -34 6 -75 4 -41 -2 -75 -2 -76 0 -7 20 -8 1040 -1 1033 5 -5 49
-57 98 -115z m2369 -267 c-3 -214 -7 -446 -8 -518 l-2 -130 -25 -3 c-30 -3
-39 -3 -65 -3 -11 1 -43 1 -72 0 -29 0 -57 2 -63 6 -5 3 -10 2 -10 -4 0 -6
-11 -6 -30 -1 -17 5 -30 5 -30 0 0 -5 -13 -5 -30 0 -17 5 -30 5 -30 0 0 -5
-13 -5 -30 0 -17 5 -30 5 -30 0 0 -5 -13 -5 -30 0 -17 5 -30 5 -30 0 0 -5 -13
-5 -30 0 -17 5 -30 5 -30 0 0 -5 -13 -5 -30 0 -17 5 -30 5 -30 0 0 -5 -13 -5
-30 0 -17 5 -30 5 -30 0 0 -5 -13 -5 -30 0 -17 5 -30 5 -30 0 0 -5 -7 -7 -15
-4 -22 9 -115 10 -115 2 0 -4 -7 -5 -17 -1 -14 5 -12 10 10 29 15 13 27 27 27
31 0 5 8 16 18 24 9 9 26 27 37 40 92 110 112 135 130 154 11 11 40 45 65 75
25 29 54 63 65 75 11 13 38 44 60 71 46 55 174 204 189 220 6 6 29 33 51 59
22 26 47 55 55 65 8 10 33 39 55 65 22 25 55 63 72 83 18 20 33 40 33 45 0 4
3 7 6 7 3 0 2 -174 -1 -387z m-4490 -1055 c36 -1 68 2 71 5 4 4 11 4 17 0 9
-5 133 -8 147 -2 3 1 9 0 15 -1 12 -2 127 -2 140 0 6 2 14 1 20 0 12 -2 127
-2 140 0 6 2 14 1 20 0 12 -2 127 -2 140 0 6 2 14 1 20 0 12 -2 127 -2 140 0
6 2 14 1 20 0 12 -2 127 -2 140 0 6 2 14 1 20 0 12 -2 127 -2 140 0 6 2 14 1
20 0 12 -2 127 -2 140 0 6 2 15 1 20 0 24 -5 144 -2 153 4 6 3 13 3 16 -2 2
-4 23 -7 45 -5 l40 2 1 -237 c0 -130 2 -348 3 -484 2 -137 0 -248 -3 -248 -9
0 -151 77 -365 198 -44 25 -98 55 -120 67 -77 41 -181 99 -264 147 -46 26 -85
48 -87 48 -5 0 -398 218 -409 227 -5 5 -32 19 -60 33 -27 14 -52 27 -55 30 -3
3 -18 12 -35 20 -16 8 -73 39 -125 69 -52 29 -124 69 -160 89 -75 40 -84 47
-52 39 12 -3 22 -1 22 5 0 5 5 6 10 3 6 -3 39 -7 75 -7z m2238 1 c34 0 67 0
72 1 6 2 14 1 20 0 12 -2 127 -2 140 0 6 2 14 1 20 0 12 -2 127 -2 140 0 6 2
15 1 20 0 6 -1 25 -2 43 -2 35 1 38 -3 20 -23 -7 -7 -29 -32 -47 -55 -19 -23
-40 -48 -46 -54 -5 -6 -75 -87 -155 -181 -79 -93 -147 -172 -150 -175 -3 -3
-30 -34 -60 -70 -30 -35 -59 -70 -65 -76 -5 -6 -32 -37 -60 -70 -27 -32 -61
-71 -75 -85 l-26 -27 -2 409 -3 409 60 -2 c33 -1 63 1 67 5 4 3 11 4 16 1 5
-3 37 -6 71 -5z m1688 1 c21 4 42 3 45 -1 3 -5 13 -5 23 1 10 5 21 7 24 4 7
-8 117 -11 117 -4 0 3 16 4 35 3 19 -2 51 -4 70 -6 19 -1 35 1 35 6 0 4 5 5
11 2 14 -9 89 -13 89 -5 0 5 47 5 60 0 3 -1 12 -3 20 -4 16 -1 17 -76 9 -584
l-4 -213 -24 28 c-13 15 -35 42 -50 58 -14 17 -76 88 -136 159 -61 72 -130
153 -155 181 -25 28 -58 67 -75 88 -16 21 -45 54 -63 75 -38 42 -48 55 -120
138 -29 33 -52 63 -52 67 0 3 16 5 35 3 19 -1 40 1 47 6 7 4 14 4 16 -1 1 -4
21 -5 43 -1z m1029 0 c8 5 18 6 23 3 11 -7 117 -10 117 -3 0 3 16 4 35 3 19
-2 51 -4 70 -6 19 -1 35 1 35 6 0 4 5 5 11 2 13 -9 89 -13 89 -5 0 3 17 4 38
2 20 -1 43 -3 50 -2 6 0 18 0 25 0 6 0 38 -1 70 -2 31 -2 57 -1 57 2 0 3 16 4
35 3 19 -2 51 -4 70 -6 19 -1 35 1 35 6 0 4 5 5 11 2 13 -9 89 -13 89 -5 0 3
17 4 38 2 20 -1 43 -3 50 -2 6 0 18 0 25 0 6 0 38 -1 70 -2 31 -2 57 -1 57 2
0 3 15 4 33 3 17 -2 49 -4 70 -6 20 -1 37 1 37 6 0 4 5 5 11 2 13 -9 89 -13
89 -5 0 3 17 4 38 2 20 -1 43 -3 50 -2 6 0 18 0 25 0 6 1 38 -1 69 -2 32 -2
59 1 61 6 2 6 7 5 10 -2 5 -6 -2 -17 -15 -25 -117 -74 -346 -219 -400 -254
-79 -50 -173 -111 -276 -176 -40 -26 -75 -47 -77 -47 -3 0 -27 -16 -54 -35
-26 -19 -51 -35 -55 -35 -4 0 -12 -5 -19 -11 -7 -5 -104 -68 -217 -140 -113
-71 -212 -134 -220 -139 -84 -56 -314 -200 -321 -200 -5 0 -9 -4 -9 -10 0 -5
-6 -10 -14 -10 -12 0 -14 44 -10 283 5 324 12 754 13 779 1 19 29 28 52 17 8
-4 21 -4 29 1z m-1613 -108 c40 -48 84 -100 99 -117 24 -28 75 -88 134 -158
14 -16 37 -42 51 -57 15 -16 33 -37 40 -48 8 -10 37 -46 66 -78 28 -32 84 -97
123 -144 77 -91 139 -164 180 -211 32 -37 39 -45 117 -137 36 -43 69 -78 74
-80 5 -2 9 -10 9 -18 0 -12 -55 -14 -347 -15 -192 0 -634 -2 -983 -4 -349 -1
-638 -1 -643 2 -4 2 5 17 20 32 16 16 46 50 68 77 48 58 112 132 128 149 7 7
30 34 52 61 22 26 49 58 60 70 11 12 29 33 40 46 62 73 132 155 142 166 7 7
29 34 50 60 21 25 49 58 63 72 14 14 45 50 70 80 68 83 83 101 105 125 11 13
58 68 105 123 47 55 89 98 95 95 5 -2 43 -43 82 -91z m1115 -1461 c27 -1 27
-1 23 -63 -3 -35 -7 -101 -10 -148 -2 -47 -7 -119 -9 -160 -3 -41 -8 -115 -11
-165 -3 -49 -8 -120 -10 -158 -3 -37 -7 -109 -10 -160 -5 -92 -10 -166 -21
-327 -3 -47 -7 -119 -9 -160 -2 -41 -4 -75 -5 -75 0 0 -3 -34 -5 -75 -4 -87
-14 -249 -21 -335 -2 -33 -7 -100 -9 -150 -2 -49 -7 -124 -10 -165 -4 -42 -1
-95 5 -120 6 -25 13 -56 16 -70 2 -14 7 -31 10 -39 2 -8 7 -30 10 -50 3 -20 9
-40 12 -46 4 -5 7 -16 9 -24 1 -7 7 -34 13 -60 6 -25 12 -55 15 -66 2 -11 10
-45 18 -75 8 -30 17 -67 21 -82 l6 -27 -97 50 c-54 26 -104 49 -110 49 -7 0
-13 5 -13 10 0 6 -4 10 -9 10 -6 0 -227 108 -493 240 -514 256 -540 265 -647
245 -29 -6 -176 -70 -366 -160 -139 -66 -267 -125 -270 -125 -3 0 -102 -46
-265 -123 -36 -17 -67 -31 -70 -32 -3 -1 -35 -16 -72 -33 -147 -69 -201 -93
-204 -89 -2 2 1 19 7 38 10 32 46 166 55 199 9 39 57 212 74 269 20 66 20 116
5 516 -2 66 -7 203 -10 305 -2 102 -7 248 -10 325 -9 254 -15 447 -30 946 l-4
147 131 1 c73 1 134 4 136 6 3 2 13 0 23 -6 11 -5 19 -6 19 -2 0 4 327 8 728
8 400 0 835 2 967 5 202 4 351 4 497 1z m-2878 -797 c3 -87 9 -249 12 -359 4
-110 7 -255 8 -322 1 -68 3 -123 6 -123 3 0 6 -51 7 -113 5 -383 5 -444 0
-462 -3 -11 -6 -20 -7 -20 -1 0 -3 -7 -5 -15 -10 -40 -17 -68 -65 -240 -49
-178 -57 -207 -65 -240 -2 -8 -4 -17 -5 -20 -1 -3 -3 -9 -5 -15 -1 -5 -3 -13
-5 -17 -1 -5 -3 -11 -4 -15 -1 -5 -15 -57 -30 -116 -28 -101 -41 -124 -76
-132 -3 -1 -34 -15 -70 -32 -36 -17 -153 -71 -261 -121 -108 -50 -230 -106
-270 -125 -228 -107 -280 -130 -288 -127 -2 1 -7 -2 -10 -7 -3 -5 -35 -22 -71
-37 -36 -16 -121 -55 -188 -87 -68 -33 -125 -59 -127 -59 -2 0 -50 -22 -107
-49 -57 -26 -115 -52 -127 -56 l-24 -7 23 38 c13 22 29 48 34 59 6 11 13 22
16 25 6 6 29 46 70 125 18 33 37 67 44 75 7 8 25 40 40 70 16 30 34 62 40 70
7 8 18 29 26 45 8 17 17 32 20 35 6 6 49 84 64 117 6 13 14 23 19 23 4 0 7 5
7 11 0 5 26 54 57 107 32 53 58 99 58 102 1 3 16 31 35 63 19 31 42 70 50 85
9 15 37 65 64 112 27 47 60 105 74 130 13 25 28 50 32 55 6 8 30 51 84 150 6
11 13 22 16 25 3 3 13 21 24 40 10 19 26 49 36 65 31 54 182 319 200 350 9 17
34 61 56 98 21 38 48 85 59 105 11 20 37 65 58 100 20 35 37 65 37 68 0 2 11
23 26 45 14 22 34 57 46 77 11 20 67 118 123 217 57 99 113 198 125 220 49 88
103 175 106 172 2 -2 6 -75 8 -163z m3353 -54 c254 -517 426 -873 425 -880 0
-3 9 -17 19 -32 10 -14 19 -29 19 -33 0 -3 46 -99 101 -213 97 -198 181 -370
384 -787 51 -104 136 -279 189 -387 53 -109 96 -202 96 -207 0 -5 7 -14 15
-21 9 -7 14 -14 12 -17 -2 -2 27 -65 64 -140 37 -76 66 -139 65 -140 -2 -2
-81 36 -177 84 -96 48 -177 87 -181 88 -3 0 -10 4 -15 8 -7 7 -66 37 -83 42
-3 0 -34 16 -70 35 -36 19 -72 37 -80 40 -31 11 -155 75 -161 83 -3 5 -10 9
-15 9 -16 0 -595 291 -590 295 3 3 1 16 -4 29 -6 14 -12 35 -14 47 -2 12 -19
81 -36 152 -18 72 -34 139 -35 150 -2 11 -4 21 -5 23 -3 3 -4 5 -19 74 -7 32
-12 59 -11 60 1 2 -3 16 -9 31 -6 15 -13 40 -16 55 -3 15 -15 66 -28 114 -13
48 -22 108 -21 135 5 94 15 259 19 323 8 105 20 311 29 480 3 47 8 119 11 160
3 41 8 107 10 145 22 379 23 391 34 360 3 -11 38 -85 78 -165z"/>
</g>
</svg>
